<svg xmlns="http://www.w3.org/2000/svg" version="1.0" width="222.73972856861974" height="257.7945217290768" preserveAspectRatio="xMidYMid meet" style=""><rect id="backgroundrect" width="100%" height="100%" x="0" y="0" fill="none" stroke="none" class="" style=""/>
<metadata>
Created by potrace 1.10, written by Peter Selinger 2001-2011
</metadata>

<g class="currentLayer" style=""><title>Layer 1</title><g transform="translate(0,333) scale(0.05000000074505806,-0.05000000074505806) " fill="#00d231" stroke="none" id="svg_1" class="">
<path d="M3510.9198344407105,6623.06820964609 c-358.66443818106245,-55.35948404835017 -820.18775514223,-310.93576873823343 -1214.6291946381116,-670.7724150525096 l-173.51845637687308,-157.774529537798 l-928.4131841195581,-4.613290337362516 l-928.4131841195581,-5.535948404835017 l-67.97630249815647,-53.51416791340517 c-140.42473016066535,-110.71896809670034 -134.16375493057197,-36.90632269890012 -134.16375493057197,-1551.91086948875 c0,-1276.0361073144716 1.7888500657409594,-1350.7714107797444 33.09372621620775,-1422.7387400425994 c34.882576281948715,-78.42593573516275 127.00835466760815,-164.2331360101055 189.61810696854172,-176.22769088724806 c33.09372621620775,-6.45860647230752 66.1874524324155,-70.12201312791021 176.20173147548454,-345.99677530218855 c25.04390092037344,-64.5860647230752 25.93832595324392,-60.895432453185194 27.727176018984874,131.94010364856794 l1.7888500657409594,198.37148450658813 l752.2114526440736,0 l753.105877676944,0 l122.53622950325575,96.87909708461281 c67.97630249815647,53.51416791340517 123.43065453612621,103.33770355692032 124.32507956899671,110.71896809670034 c0.8944250328705569,7.381264539780022 -426.6407406792189,12.91721294461504 -948.9849598755792,12.91721294461504 c-872.0644070487178,-0.92265806747253 -953.4570850399316,1.8453161349450053 -983.8675361575279,30.447716226592597 c-56.348777070840235,52.59150984593267 -52.771076939358316,2678.476369872676 3.577700131481921,2731.0678797186088 c36.671426347689675,34.13834849648261 88.54807825417753,35.061006563955104 1565.24380752334,35.061006563955104 c839.8651058653807,0 1527.6779561427795,4.613290337362516 1526.783531109909,9.22658067472503 c0,5.535948404835017 -63.50417733380407,52.59150984593267 -140.42473016066535,106.10567775933784 l-139.53030512779486,96.87909708461281 l-218.2397080203971,0 c-211.08430775743327,0 -219.13413305326756,-1.8453161349450053 -264.749809729662,-47.978219508570156 c-57.24320210371071,-59.05011631824019 -348.8257628194872,-52.59150984593267 -392.65258943014067,8.303922607252526 c-19.677350723150557,27.679742024175084 -2.68327509861144,31.370374294065098 196.7735072315056,35.983664631427615 l217.34528298752662,5.535948404835017 l59.92647720232216,90.42049061230527 c188.72368193567127,286.94665898394845 420.37976544912556,417.9641045650438 798.7215543533385,453.9477691964714 c974.0288607959526,91.34314867977778 549.1769701824746,-1535.303024274245 -832.7097056024168,-3194.2422295898054 c-542.0215699195109,-650.4739375681146 -1482.9567044992557,-1294.4892686639216 -1906.9141700798632,-1307.4064816085365 c-174.4128814097436,-4.613290337362516 -372.0808136741196,188.2222457643906 -465.1010170926495,453.9477691964714 c-65.29302739954502,185.45427156197306 -81.39267799121367,39.674296901317625 -25.93832595324392,-236.20046527296077 c117.16967930603286,-585.8878728450393 487.4616429144115,-672.6177311874546 1230.7288452297805,-287.8693170514209 c1708.3518127826167,884.8290867061302 3428.331150992549,3789.3566831095695 2729.7852003207045,4608.677047025151 c-160.1020808838159,187.2995876969181 -466.88986715839053,288.7919751188934 -743.2672023153689,246.34970401515827 zm-693.179400474622,-461.32903373625146 c0,-11.071896809670035 -74.23727772824984,-55.35948404835017 -165.46863108103878,-98.7244132195578 c-178.88500657409597,-85.80720027494276 -228.07838338197237,-106.10567775933784 -228.07838338197237,-95.0337809496678 c0,14.762529079560048 302.3156611102222,186.37692962944558 353.29788798383953,200.2168006415331 c16.994075624539118,4.613290337362516 33.09372621620775,9.22658067472503 35.777001314819195,11.071896809670035 c2.68327509861144,0.92265806747253 4.4721251643524,-7.381264539780022 4.4721251643524,-17.530503281977552 zm-2364.859786909549,-3545.7749532968287 c33.09372621620775,-34.13834849648261 25.93832595324392,-51.66885177846016 -23.255050854632476,-51.66885177846016 c-48.29895177500591,0 -50.08780184074688,1.8453161349450053 -33.988151249078236,44.28758723868014 c13.416375493057199,35.061006563955104 28.621601051855354,36.90632269890012 57.24320210371071,7.381264539780022 z" id="svg_2"/>
<path d="M1377.7161310446158,5467.900309170515 c-199.456782330117,-42.44227110373514 -419.4853404162551,-143.01200045823796 -487.4616429144115,-220.5152781259282 c-22.360625821761996,-25.83442588923008 -40.24912647917159,-39.674296901317625 -40.24912647917159,-31.370374294065098 c-0.8944250328705569,8.303922607252526 -41.14355151204208,-29.525058159120096 -90.33692831991846,-84.88454220747028 c-97.49232858288231,-107.95099389428283 -106.43657891158712,-155.92921340285298 -10.733100394445758,-59.97277438571269 c32.199301183337276,32.2930323615376 64.39860236667455,53.51416791340517 70.65957759676792,46.13290337362514 c7.1554002629638385,-7.381264539780022 12.52195046018672,0.92265806747253 12.52195046018672,18.45316134945006 c0,17.530503281977552 14.310800525927677,30.447716226592597 33.988151249078236,30.447716226592597 c39.354701446301114,0 76.92055282686128,40.59695496879013 69.76515256389743,75.65796153274525 c-3.577700131481921,14.762529079560048 13.416375493057199,27.679742024175084 39.354701446301114,31.370374294065098 c25.04390092037344,4.613290337362516 52.771076939358316,13.839871012087542 62.6097523009336,22.14379361934007 c48.29895177500591,40.59695496879013 295.1602608472583,110.71896809670034 434.69056597505323,122.7135229738429 c85.86480315556607,8.303922607252526 137.7414550620539,17.530503281977552 115.3808292402919,21.22113555186757 c-22.360625821761996,3.6906322698900125 -40.24912647917159,13.839871012087542 -40.24912647917159,23.06645168681257 c0,17.530503281977552 -101.07002871436423,20.298477484395065 -169.94075624539119,5.535948404835017 z" id="svg_3"/>
<path d="M1315.1063787436815,5341.496153926783 c-18.782925690280077,-23.06645168681257 -16.099650591668638,-27.679742024175084 14.310800525927677,-27.679742024175084 c20.57177575602104,0 42.03797654491256,8.303922607252526 48.29895177500591,18.45316134945006 c6.26097523009336,11.071896809670035 18.782925690280077,14.762529079560048 26.832750986114398,9.22658067472503 c8.049825295834319,-5.535948404835017 20.57177575602104,-1.8453161349450053 26.832750986114398,9.22658067472503 c17.888500657409597,30.447716226592597 -91.23135335278896,21.22113555186757 -116.27525427316237,-9.22658067472503 z" id="svg_4"/>
<path d="M2155.8659096419333,5306.435147362828 c0,-15.685187147032549 -6.26097523009336,-28.60240009164759 -13.416375493057199,-27.679742024175084 c-44.72125164352399,7.381264539780022 -76.02612779399078,-5.535948404835017 -76.02612779399078,-31.370374294065098 c0,-21.22113555186757 -8.944250328704799,-25.83442588923008 -31.3048761504668,-15.685187147032549 c-42.03797654491256,18.45316134945006 -111.80312910880997,12.91721294461504 -139.53030512779486,-11.071896809670035 c-17.888500657409597,-14.762529079560048 -25.04390092037344,-9.22658067472503 -28.621601051855354,23.06645168681257 c-9.838675361575278,71.04467119538272 -78.70940289260223,65.5087227905477 -150.26340552224062,-11.994554877142539 c-45.61567667639448,-50.74619371098766 -72.44842766250886,-65.5087227905477 -110.01427904306902,-61.81809052065769 c-40.24912647917159,4.613290337362516 -50.08780184074688,-1.8453161349450053 -49.1933768078764,-31.370374294065098 c0.8944250328705569,-32.2930323615376 -8.944250328704799,-35.983664631427615 -73.34285269537935,-30.447716226592597 c-56.348777070840235,4.613290337362516 -102.85887878010519,-8.303922607252526 -184.25155677131886,-49.82353564351516 l-109.11985401019855,-56.28214211582267 l3.577700131481921,44.28758723868014 c2.68327509861144,36.90632269890012 10.733100394445758,43.364929171207635 43.826826610653505,34.13834849648261 c47.40452674213543,-11.994554877142539 54.559927005099276,20.298477484395065 16.099650591668638,71.96732926285523 c-34.882576281948715,47.978219508570156 -118.06410433890335,39.674296901317625 -210.18988272456278,-21.22113555186757 c-44.72125164352399,-29.525058159120096 -99.28117864862327,-59.05011631824019 -119.85295440464431,-65.5087227905477 c-46.51010170926495,-15.685187147032549 -90.33692831991846,-87.65251640988777 -59.032052169451674,-98.7244132195578 c14.310800525927677,-4.613290337362516 15.205225558798158,-16.60784521450505 0.8944250328705569,-44.28758723868014 c-16.994075624539118,-33.2156904290101 -15.205225558798158,-35.061006563955104 22.360625821761996,-23.06645168681257 c44.72125164352399,13.839871012087542 67.97630249815647,40.59695496879013 68.87072753102694,77.50327766769024 c0,19.37581941692256 126.11392963473767,115.33225843406287 152.05225558798156,115.33225843406287 c25.04390092037344,0 4.4721251643524,-35.983664631427615 -26.832750986114398,-46.13290337362514 c-67.97630249815647,-22.14379361934007 -84.97037812269559,-89.49783254483279 -19.677350723150557,-79.34859380263525 c38.46027641343064,5.535948404835017 55.45435203796975,0.92265806747253 55.45435203796975,-15.685187147032549 c0,-15.685187147032549 -21.466200788891516,-24.911767821757575 -54.559927005099276,-24.911767821757575 c-29.516026084725837,0 -71.55400262963839,-16.60784521450505 -93.0202034185299,-36.90632269890012 c-59.92647720232216,-58.12745825076769 -145.79128035788824,-50.74619371098766 -130.58605479909005,11.994554877142539 l11.627525427316238,47.978219508570156 l-55.45435203796975,-47.978219508570156 c-82.28710302408416,-71.96732926285523 -98.3867536157528,-59.97277438571269 -47.40452674213543,34.13834849648261 c51.87665190648784,95.95643901714031 30.410451117596317,108.87365196175534 -45.61567667639448,26.757083956702584 c-35.777001314819195,-38.75163883384512 -48.29895177500591,-67.35403892549272 -41.14355151204208,-92.26580674725028 c6.26097523009336,-20.298477484395065 2.68327509861144,-35.983664631427615 -8.049825295834319,-35.983664631427615 c-9.838675361575278,0 -18.782925690280077,-21.22113555186757 -18.782925690280077,-47.978219508570156 c0,-37.828980766372624 -6.26097523009336,-45.210245306152636 -29.516026084725837,-35.983664631427615 c-34.882576281948715,12.91721294461504 -59.032052169451674,-18.45316134945006 -59.92647720232216,-77.50327766769024 c0,-23.06645168681257 -23.255050854632476,-74.73530346527274 -51.87665190648784,-116.25491650153538 c-88.54807825417753,-125.48149717626039 -79.60382792547271,-516.6885177846016 9.838675361575278,-440.1078981843839 c28.621601051855354,24.911767821757575 100.17560368149375,-49.82353564351516 86.75922818843654,-90.42049061230527 c-4.4721251643524,-13.839871012087542 6.26097523009336,-55.35948404835017 25.04390092037344,-92.26580674725028 c20.57177575602104,-41.51961303626263 31.3048761504668,-95.95643901714031 27.727176018984874,-138.39871012087542 c-2.68327509861144,-43.364929171207635 3.577700131481921,-73.81264539780024 16.099650591668638,-79.34859380263525 c12.52195046018672,-4.613290337362516 57.24320210371071,-58.12745825076769 100.17560368149375,-119.94554877142538 c64.39860236667455,-90.42049061230527 86.75922818843654,-109.79631002922784 123.43065453612621,-105.18301969186534 c46.51010170926495,5.535948404835017 111.80312910880997,97.80175515208532 97.49232858288231,137.47605205340292 c-4.4721251643524,11.994554877142539 8.944250328704799,26.757083956702584 29.516026084725837,34.13834849648261 c44.72125164352399,13.839871012087542 47.40452674213543,59.05011631824019 7.1554002629638385,105.18301969186534 c-34.882576281948715,39.674296901317625 9.838675361575278,105.18301969186534 99.28117864862327,143.01200045823796 c92.12577838565943,39.674296901317625 116.27525427316237,133.7854197835129 28.621601051855354,116.25491650153538 c-32.199301183337276,-6.45860647230752 -59.032052169451674,5.535948404835017 -97.49232858288231,44.28758723868014 c-63.50417733380407,64.5860647230752 -101.9644537472347,154.083897267908 -65.29302739954502,154.083897267908 c27.727176018984874,0 74.23727772824984,-66.4313808580202 84.97037812269559,-120.86820683889788 c8.049825295834319,-40.59695496879013 56.348777070840235,-41.51961303626263 189.61810696854172,-5.535948404835017 c133.2693298977015,35.983664631427615 145.79128035788824,104.26036162439283 21.466200788891516,119.02289070395287 c-65.29302739954502,8.303922607252526 -106.43657891158712,36.90632269890012 -106.43657891158712,73.81264539780024 c0,34.13834849648261 31.3048761504668,33.2156904290101 65.29302739954502,-1.8453161349450053 c14.310800525927677,-14.762529079560048 42.03797654491256,-27.679742024175084 59.92647720232216,-27.679742024175084 c18.782925690280077,0 38.46027641343064,-8.303922607252526 44.72125164352399,-18.45316134945006 c6.26097523009336,-10.149238742197532 42.03797654491256,-18.45316134945006 78.70940289260223,-18.45316134945006 c41.14355151204208,0 86.75922818843654,-14.762529079560048 113.59197917455094,-36.90632269890012 c25.04390092037344,-20.298477484395065 52.771076939358316,-36.90632269890012 60.820902235192634,-36.90632269890012 c8.049825295834319,-0.92265806747253 33.09372621620775,-42.44227110373514 54.559927005099276,-94.1111228821953 c43.826826610653505,-102.41504548944782 98.3867536157528,-119.94554877142538 110.01427904306902,-35.061006563955104 c15.205225558798158,111.64162616417285 224.50068325049045,203.90743291142311 262.0665346310507,115.33225843406287 c11.627525427316238,-26.757083956702584 27.727176018984874,-37.828980766372624 47.40452674213543,-31.370374294065098 c30.410451117596317,10.149238742197532 66.1874524324155,-55.35948404835017 43.826826610653505,-79.34859380263525 c-6.26097523009336,-5.535948404835017 2.68327509861144,-25.83442588923008 18.782925690280077,-44.28758723868014 c36.671426347689675,-42.44227110373514 21.466200788891516,-62.7407485881302 -26.832750986114398,-35.983664631427615 c-19.677350723150557,11.071896809670035 -40.24912647917159,12.91721294461504 -45.61567667639448,4.613290337362516 c-5.366550197222879,-8.303922607252526 10.733100394445758,-26.757083956702584 34.882576281948715,-39.674296901317625 c24.149475887502955,-13.839871012087542 43.826826610653505,-31.370374294065098 43.826826610653505,-39.674296901317625 c0,-47.978219508570156 198.56235729724654,-94.1111228821953 223.60625821761994,-52.59150984593267 c6.26097523009336,11.071896809670035 -14.310800525927677,18.45316134945006 -52.771076939358316,18.45316134945006 c-44.72125164352399,0 -63.50417733380407,8.303922607252526 -63.50417733380407,27.679742024175084 c0,15.685187147032549 -8.049825295834319,27.679742024175084 -17.888500657409597,27.679742024175084 c-9.838675361575278,0 -17.888500657409597,16.60784521450505 -17.888500657409597,35.983664631427615 c0,19.37581941692256 -12.52195046018672,43.364929171207635 -27.727176018984874,51.66885177846016 c-16.994075624539118,10.149238742197532 -23.255050854632476,28.60240009164759 -16.099650591668638,47.05556144109765 c13.416375493057199,35.061006563955104 35.777001314819195,40.59695496879013 52.771076939358316,12.91721294461504 c15.205225558798158,-25.83442588923008 80.49825295834319,20.298477484395065 80.49825295834319,57.20480018329518 c0,16.60784521450505 -11.627525427316238,40.59695496879013 -25.93832595324392,52.59150984593267 c-36.671426347689675,31.370374294065098 -17.888500657409597,64.5860647230752 51.87665190648784,90.42049061230527 c118.06410433890335,44.28758723868014 160.99650591668637,279.5653944441684 50.08780184074688,279.5653944441684 c-25.93832595324392,0 -28.621601051855354,17.530503281977552 -7.1554002629638385,51.66885177846016 c20.57177575602104,33.2156904290101 73.34285269537935,7.381264539780022 93.0202034185299,-45.210245306152636 c17.888500657409597,-48.90087757604266 73.34285269537935,-80.27125187010776 84.07595308982512,-47.978219508570156 c3.577700131481921,11.994554877142539 18.782925690280077,16.60784521450505 32.199301183337276,11.071896809670035 c18.782925690280077,-7.381264539780022 25.93832595324392,4.613290337362516 25.93832595324392,44.28758723868014 c0,54.43682598087767 42.03797654491256,113.48694229911786 59.032052169451674,83.96188413999776 c38.46027641343064,-67.35403892549272 51.87665190648784,-228.8192007331807 21.466200788891516,-262.9575492296633 c-27.727176018984874,-33.2156904290101 -74.23727772824984,-35.983664631427615 -56.348777070840235,-4.613290337362516 c3.577700131481921,7.381264539780022 0,29.525058159120096 -8.944250328704799,49.82353564351516 c-11.627525427316238,26.757083956702584 -13.416375493057199,18.45316134945006 -7.1554002629638385,-33.2156904290101 c7.1554002629638385,-63.66340665560269 -68.87072753102694,-134.70807785098543 -161.89093094955686,-151.3159230654905 c-1.7888500657409594,0 -8.049825295834319,-32.2930323615376 -15.205225558798158,-71.96732926285523 c-10.733100394445758,-59.97277438571269 -8.049825295834319,-70.12201312791021 16.099650591668638,-59.97277438571269 c15.205225558798158,5.535948404835017 27.727176018984874,2.767974202417509 27.727176018984874,-7.381264539780022 c0,-27.679742024175084 48.29895177500591,-20.298477484395065 59.92647720232216,9.22658067472503 c5.366550197222879,14.762529079560048 -6.26097523009336,47.978219508570156 -26.832750986114398,73.81264539780024 l-35.777001314819195,47.978219508570156 l63.50417733380407,26.757083956702584 c34.882576281948715,15.685187147032549 70.65957759676792,27.679742024175084 79.60382792547271,27.679742024175084 c8.944250328704799,0 25.93832595324392,12.91721294461504 38.46027641343064,27.679742024175084 c12.52195046018672,15.685187147032549 28.621601051855354,27.679742024175084 35.777001314819195,27.679742024175084 c17.888500657409597,0 34.882576281948715,-68.27669699296521 21.466200788891516,-83.03922607252527 c-6.26097523009336,-5.535948404835017 -8.944250328704799,-41.51961303626263 -6.26097523009336,-80.27125187010776 c5.366550197222879,-70.12201312791021 -33.988151249078236,-130.09478751362292 -90.33692831991846,-138.39871012087542 c-14.310800525927677,-1.8453161349450053 -44.72125164352399,-23.06645168681257 -68.87072753102694,-46.13290337362514 l-43.826826610653505,-42.44227110373514 l51.87665190648784,23.989109754285078 c41.14355151204208,19.37581941692256 54.559927005099276,19.37581941692256 59.92647720232216,1.8453161349450053 c9.838675361575278,-31.370374294065098 49.1933768078764,-28.60240009164759 76.02612779399078,4.613290337362516 c17.888500657409597,22.14379361934007 17.888500657409597,33.2156904290101 0,55.35948404835017 c-17.888500657409597,22.14379361934007 -16.994075624539118,27.679742024175084 4.4721251643524,27.679742024175084 c63.50417733380407,0 71.55400262963839,333.07956235757354 13.416375493057199,498.23535643515163 c-19.677350723150557,55.35948404835017 -35.777001314819195,121.79086490637039 -36.671426347689675,147.62529079560048 c0,24.911767821757575 -16.994075624539118,75.65796153274525 -36.671426347689675,110.71896809670034 c-19.677350723150557,35.983664631427615 -30.410451117596317,47.978219508570156 -24.149475887502955,27.679742024175084 c22.360625821761996,-64.5860647230752 18.782925690280077,-199.29414257406063 -5.366550197222879,-207.59806518131313 c-12.52195046018672,-4.613290337362516 -22.360625821761996,5.535948404835017 -22.360625821761996,21.22113555186757 c0,16.60784521450505 -7.1554002629638385,29.525058159120096 -15.205225558798158,29.525058159120096 c-8.944250328704799,0 -16.099650591668638,-21.22113555186757 -16.099650591668638,-47.05556144109765 c0,-59.05011631824019 -10.733100394445758,-70.12201312791021 -56.348777070840235,-55.35948404835017 c-35.777001314819195,11.994554877142539 -43.826826610653505,65.5087227905477 -14.310800525927677,95.95643901714031 c47.40452674213543,47.978219508570156 -5.366550197222879,271.26147183691586 -56.348777070840235,238.96843947537826 c-43.826826610653505,-27.679742024175084 -83.18152805695463,106.10567775933784 -43.826826610653505,146.70263272812798 c24.149475887502955,24.911767821757575 33.09372621620775,18.45316134945006 85.86480315556607,-65.5087227905477 c42.03797654491256,-67.35403892549272 61.715327268063106,-85.80720027494276 68.87072753102694,-65.5087227905477 c7.1554002629638385,18.45316134945006 -19.677350723150557,60.895432453185194 -71.55400262963839,116.25491650153538 c-44.72125164352399,47.978219508570156 -75.13170276112031,75.65796153274525 -67.08187746528598,59.97277438571269 c11.627525427316238,-23.989109754285078 9.838675361575278,-23.989109754285078 -16.099650591668638,-2.767974202417509 c-33.09372621620775,27.679742024175084 -42.03797654491256,48.90087757604266 -12.52195046018672,30.447716226592597 c37.565851380560154,-23.989109754285078 16.099650591668638,23.06645168681257 -31.3048761504668,67.35403892549272 c-106.43657891158712,100.56972935450283 -183.35713173844837,151.3159230654905 -183.35713173844837,119.02289070395287 zm-525.9219193278421,-237.12312334043324 c-10.733100394445758,-17.530503281977552 -31.3048761504668,-32.2930323615376 -45.61567667639448,-32.2930323615376 c-20.57177575602104,0 -21.466200788891516,4.613290337362516 -4.4721251643524,22.14379361934007 c11.627525427316238,11.994554877142539 21.466200788891516,37.828980766372624 21.466200788891516,56.28214211582267 c0,27.679742024175084 4.4721251643524,29.525058159120096 24.149475887502955,10.149238742197532 c18.782925690280077,-17.530503281977552 19.677350723150557,-31.370374294065098 4.4721251643524,-56.28214211582267 zm561.6989206426614,-54.43682598087767 c0,-60.895432453185194 -44.72125164352399,-122.7135229738429 -59.92647720232216,-83.96188413999776 c-4.4721251643524,12.91721294461504 -9.838675361575278,3.6906322698900125 -9.838675361575278,-19.37581941692256 c-0.8944250328705569,-23.989109754285078 9.838675361575278,-55.35948404835017 25.04390092037344,-71.04467119538272 c18.782925690280077,-19.37581941692256 21.466200788891516,-36.90632269890012 9.838675361575278,-60.895432453185194 c-9.838675361575278,-18.45316134945006 -14.310800525927677,-36.90632269890012 -9.838675361575278,-40.59695496879013 c3.577700131481921,-4.613290337362516 -8.049825295834319,-9.22658067472503 -27.727176018984874,-11.071896809670035 c-41.14355151204208,-2.767974202417509 -42.03797654491256,1.8453161349450053 -12.52195046018672,51.66885177846016 c17.888500657409597,30.447716226592597 17.888500657409597,39.674296901317625 -2.68327509861144,52.59150984593267 c-13.416375493057199,9.22658067472503 -18.782925690280077,25.83442588923008 -11.627525427316238,36.90632269890012 c17.888500657409597,30.447716226592597 -17.888500657409597,24.911767821757575 -43.826826610653505,-7.381264539780022 c-17.888500657409597,-22.14379361934007 -17.888500657409597,-27.679742024175084 2.68327509861144,-29.525058159120096 c13.416375493057199,-1.8453161349450053 0.8944250328705569,-7.381264539780022 -28.621601051855354,-13.839871012087542 c-49.1933768078764,-11.071896809670035 -50.08780184074688,-13.839871012087542 -21.466200788891516,-43.364929171207635 c28.621601051855354,-29.525058159120096 28.621601051855354,-32.2930323615376 -6.26097523009336,-51.66885177846016 c-19.677350723150557,-11.071896809670035 -34.882576281948715,-29.525058159120096 -33.988151249078236,-42.44227110373514 c0.8944250328705569,-16.60784521450505 3.577700131481921,-16.60784521450505 9.838675361575278,0.92265806747253 c5.366550197222879,12.91721294461504 20.57177575602104,23.06645168681257 34.882576281948715,23.06645168681257 c13.416375493057199,0 25.04390092037344,8.303922607252526 25.04390092037344,18.45316134945006 c0,37.828980766372624 35.777001314819195,16.60784521450505 63.50417733380407,-38.75163883384512 c26.832750986114398,-53.51416791340517 52.771076939358316,-59.05011631824019 52.771076939358316,-10.149238742197532 c0,11.994554877142539 12.52195046018672,22.14379361934007 26.832750986114398,23.06645168681257 c15.205225558798158,0.92265806747253 47.40452674213543,10.149238742197532 71.55400262963839,21.22113555186757 c50.08780184074688,21.22113555186757 97.49232858288231,-3.6906322698900125 57.24320210371071,-30.447716226592597 c-44.72125164352399,-27.679742024175084 -76.92055282686128,-119.94554877142538 -72.44842766250886,-206.67540711384063 c6.26097523009336,-143.93465852571046 -94.80905348427086,-240.81375561032326 -162.78535598242735,-155.92921340285298 c-28.621601051855354,35.061006563955104 -147.58013042362916,23.989109754285078 -248.65015913799343,-23.06645168681257 c-42.93240157778303,-20.298477484395065 -91.23135335278896,-34.13834849648261 -107.33100394445759,-30.447716226592597 c-16.099650591668638,2.767974202417509 -35.777001314819195,6.45860647230752 -42.93240157778303,6.45860647230752 c-7.1554002629638385,0.92265806747253 -13.416375493057199,14.762529079560048 -13.416375493057199,30.447716226592597 c0,15.685187147032549 -8.049825295834319,23.989109754285078 -17.888500657409597,17.530503281977552 c-8.944250328704799,-5.535948404835017 -47.40452674213543,10.149238742197532 -84.07595308982512,35.983664631427615 c-48.29895177500591,33.2156904290101 -69.76515256389743,40.59695496879013 -79.60382792547271,23.989109754285078 c-8.944250328704799,-15.685187147032549 -16.994075624539118,-11.071896809670035 -26.832750986114398,12.91721294461504 c-7.1554002629638385,21.22113555186757 -4.4721251643524,38.75163883384512 7.1554002629638385,42.44227110373514 c11.627525427316238,3.6906322698900125 16.099650591668638,18.45316134945006 10.733100394445758,33.2156904290101 c-5.366550197222879,14.762529079560048 -16.994075624539118,22.14379361934007 -25.93832595324392,16.60784521450505 c-8.944250328704799,-5.535948404835017 -16.099650591668638,-1.8453161349450053 -16.099650591668638,9.22658067472503 c0,10.149238742197532 8.049825295834319,19.37581941692256 17.888500657409597,19.37581941692256 c9.838675361575278,0 17.888500657409597,12.91721294461504 17.888500657409597,27.679742024175084 c0,15.685187147032549 -8.049825295834319,27.679742024175084 -17.888500657409597,27.679742024175084 c-9.838675361575278,0 -17.888500657409597,-9.22658067472503 -17.888500657409597,-19.37581941692256 c0,-11.071896809670035 -8.049825295834319,-14.762529079560048 -17.888500657409597,-8.303922607252526 c-9.838675361575278,6.45860647230752 -14.310800525927677,31.370374294065098 -10.733100394445758,56.28214211582267 c4.4721251643524,23.989109754285078 2.68327509861144,42.44227110373514 -3.577700131481921,40.59695496879013 c-19.677350723150557,-6.45860647230752 -93.91462845140038,52.59150984593267 -81.39267799121367,65.5087227905477 c6.26097523009336,6.45860647230752 -10.733100394445758,22.14379361934007 -38.46027641343064,34.13834849648261 c-41.14355151204208,19.37581941692256 -51.87665190648784,19.37581941692256 -68.87072753102694,-5.535948404835017 c-20.57177575602104,-27.679742024175084 -73.34285269537935,-25.83442588923008 -56.348777070840235,1.8453161349450053 c4.4721251643524,8.303922607252526 -4.4721251643524,13.839871012087542 -20.57177575602104,12.91721294461504 c-16.099650591668638,-1.8453161349450053 -32.199301183337276,5.535948404835017 -35.777001314819195,16.60784521450505 c-10.733100394445758,30.447716226592597 92.12577838565943,82.11656800505276 166.36305611390927,82.11656800505276 c50.98222687361735,0.92265806747253 61.715327268063106,5.535948404835017 42.03797654491256,18.45316134945006 c-14.310800525927677,10.149238742197532 -22.360625821761996,18.45316134945006 -17.888500657409597,19.37581941692256 c5.366550197222879,0.92265806747253 25.04390092037344,5.535948404835017 44.72125164352399,10.149238742197532 c37.565851380560154,8.303922607252526 204.8233325273399,23.989109754285078 271.9052099926259,24.911767821757575 c21.466200788891516,0.92265806747253 50.98222687361735,13.839871012087542 67.08187746528598,29.525058159120096 c15.205225558798158,16.60784521450505 27.727176018984874,22.14379361934007 28.621601051855354,13.839871012087542 c0,-8.303922607252526 16.099650591668638,5.535948404835017 36.671426347689675,29.525058159120096 c51.87665190648784,65.5087227905477 117.16967930603286,95.95643901714031 164.57420604816832,77.50327766769024 c21.466200788891516,-9.22658067472503 43.826826610653505,-17.530503281977552 48.29895177500591,-19.37581941692256 c5.366550197222879,-1.8453161349450053 31.3048761504668,5.535948404835017 58.13762713658119,15.685187147032549 c42.93240157778303,17.530503281977552 49.1933768078764,14.762529079560048 49.1933768078764,-16.60784521450505 c0,-20.298477484395065 11.627525427316238,-36.90632269890012 26.832750986114398,-36.90632269890012 c15.205225558798158,0 25.04390092037344,10.149238742197532 22.360625821761996,23.06645168681257 c-2.68327509861144,12.91721294461504 8.944250328704799,20.298477484395065 26.832750986114398,17.530503281977552 c23.255050854632476,-3.6906322698900125 27.727176018984874,2.767974202417509 18.782925690280077,27.679742024175084 c-10.733100394445758,29.525058159120096 -8.049825295834319,30.447716226592597 17.888500657409597,8.303922607252526 c16.994075624539118,-14.762529079560048 30.410451117596317,-49.82353564351516 30.410451117596317,-80.27125187010776 zm-1513.367155616852,-321.08500748043105 c21.466200788891516,-8.303922607252526 24.149475887502955,-19.37581941692256 9.838675361575278,-46.13290337362514 c-15.205225558798158,-29.525058159120096 -11.627525427316238,-38.75163883384512 22.360625821761996,-51.66885177846016 c29.516026084725837,-11.071896809670035 42.93240157778303,-9.22658067472503 46.51010170926495,9.22658067472503 c3.577700131481921,14.762529079560048 13.416375493057199,25.83442588923008 22.360625821761996,25.83442588923008 c24.149475887502955,0 21.466200788891516,-50.74619371098766 -3.577700131481921,-66.4313808580202 c-13.416375493057199,-8.303922607252526 -10.733100394445758,-17.530503281977552 9.838675361575278,-29.525058159120096 c16.099650591668638,-9.22658067472503 36.671426347689675,-11.994554877142539 45.61567667639448,-5.535948404835017 c9.838675361575278,5.535948404835017 33.988151249078236,-6.45860647230752 53.665501972228796,-26.757083956702584 c20.57177575602104,-21.22113555186757 53.665501972228796,-37.828980766372624 73.34285269537935,-37.828980766372624 c43.826826610653505,0 42.03797654491256,-49.82353564351516 -3.577700131481921,-79.34859380263525 c-20.57177575602104,-13.839871012087542 -49.1933768078764,-8.303922607252526 -105.54215387871663,20.298477484395065 c-50.98222687361735,25.83442588923008 -84.07595308982512,33.2156904290101 -97.49232858288231,22.14379361934007 c-26.832750986114398,-23.06645168681257 -101.07002871436423,62.7407485881302 -87.65365322130701,99.64707128703031 c5.366550197222879,14.762529079560048 -4.4721251643524,35.061006563955104 -24.149475887502955,45.210245306152636 c-34.882576281948715,19.37581941692256 -41.14355151204208,66.4313808580202 -16.099650591668638,108.87365196175534 c16.099650591668638,26.757083956702584 16.994075624539118,26.757083956702584 54.559927005099276,11.994554877142539 zm314.8376115704089,-66.4313808580202 c0,-17.530503281977552 4.4721251643524,-17.530503281977552 21.466200788891516,0 c29.516026084725837,30.447716226592597 68.87072753102694,27.679742024175084 57.24320210371071,-3.6906322698900125 c-5.366550197222879,-13.839871012087542 -0.8944250328705569,-31.370374294065098 9.838675361575278,-37.828980766372624 c9.838675361575278,-6.45860647230752 18.782925690280077,-23.989109754285078 18.782925690280077,-38.75163883384512 c0,-30.447716226592597 -63.50417733380407,-36.90632269890012 -80.49825295834319,-8.303922607252526 c-6.26097523009336,10.149238742197532 -34.882576281948715,18.45316134945006 -63.50417733380407,18.45316134945006 c-55.45435203796975,0 -68.87072753102694,31.370374294065098 -31.3048761504668,70.12201312791021 c11.627525427316238,11.994554877142539 32.199301183337276,22.14379361934007 44.72125164352399,22.14379361934007 c12.52195046018672,0 23.255050854632476,-10.149238742197532 23.255050854632476,-22.14379361934007 zm287.110435551424,-50.74619371098766 c-18.782925690280077,-11.994554877142539 -20.57177575602104,-23.06645168681257 -6.26097523009336,-40.59695496879013 c23.255050854632476,-30.447716226592597 21.466200788891516,-111.64162616417285 -3.577700131481921,-119.94554877142538 c-67.97630249815647,-22.14379361934007 -108.22542897732806,167.92376827999553 -42.03797654491256,194.68085223669812 c50.08780184074688,19.37581941692256 92.12577838565943,-8.303922607252526 51.87665190648784,-34.13834849648261 zm-540.2327198537698,-334.9248784925186 c22.360625821761996,-21.22113555186757 51.87665190648784,-34.13834849648261 65.29302739954502,-28.60240009164759 c27.727176018984874,11.071896809670035 59.032052169451674,-170.69174248241305 35.777001314819195,-208.52072324878566 c-18.782925690280077,-31.370374294065098 -62.6097523009336,12.91721294461504 -50.98222687361735,50.74619371098766 c8.049825295834319,26.757083956702584 6.26097523009336,26.757083956702584 -8.944250328704799,4.613290337362516 c-23.255050854632476,-34.13834849648261 -39.354701446301114,-19.37581941692256 -45.61567667639448,44.28758723868014 c-7.1554002629638385,68.27669699296521 -37.565851380560154,95.95643901714031 -72.44842766250886,66.4313808580202 c-23.255050854632476,-20.298477484395065 -27.727176018984874,-18.45316134945006 -27.727176018984874,6.45860647230752 c0,15.685187147032549 9.838675361575278,27.679742024175084 22.360625821761996,24.911767821757575 c13.416375493057199,-2.767974202417509 20.57177575602104,11.994554877142539 17.888500657409597,36.90632269890012 c-5.366550197222879,51.66885177846016 13.416375493057199,52.59150984593267 64.39860236667455,2.767974202417509 z" id="svg_5"/>
<path d="M1583.4338886048258,4584.91653859933 c0,-30.447716226592597 9.838675361575278,-46.13290337362514 28.621601051855354,-46.13290337362514 c24.149475887502955,0 25.04390092037344,-4.613290337362516 7.1554002629638385,-27.679742024175084 c-12.52195046018672,-15.685187147032549 -18.782925690280077,-33.2156904290101 -12.52195046018672,-38.75163883384512 c5.366550197222879,-5.535948404835017 18.782925690280077,6.45860647230752 28.621601051855354,26.757083956702584 c13.416375493057199,25.83442588923008 14.310800525927677,41.51961303626263 0.8944250328705569,48.90087757604266 c-9.838675361575278,7.381264539780022 -13.416375493057199,28.60240009164759 -7.1554002629638385,47.978219508570156 c7.1554002629638385,23.989109754285078 1.7888500657409594,35.061006563955104 -17.888500657409597,35.061006563955104 c-17.888500657409597,0 -27.727176018984874,-16.60784521450505 -27.727176018984874,-46.13290337362514 z" id="svg_6"/>
<path d="M1777.5241207377194,4607.982990286142 c26.832750986114398,-35.061006563955104 22.360625821761996,-37.828980766372624 -66.1874524324155,-32.2930323615376 c-40.24912647917159,1.8453161349450053 -56.348777070840235,-3.6906322698900125 -48.29895177500591,-17.530503281977552 c7.1554002629638385,-11.071896809670035 18.782925690280077,-15.685187147032549 26.832750986114398,-11.071896809670035 c8.049825295834319,5.535948404835017 25.04390092037344,-2.767974202417509 36.671426347689675,-17.530503281977552 c12.52195046018672,-15.685187147032549 31.3048761504668,-27.679742024175084 41.14355151204208,-27.679742024175084 c10.733100394445758,0 3.577700131481921,12.91721294461504 -15.205225558798158,28.60240009164759 c-25.04390092037344,19.37581941692256 -27.727176018984874,26.757083956702584 -8.049825295834319,23.989109754285078 c37.565851380560154,-4.613290337362516 89.44250328704798,21.22113555186757 89.44250328704798,44.28758723868014 c0,11.071896809670035 -5.366550197222879,14.762529079560048 -11.627525427316238,8.303922607252526 c-6.26097523009336,-7.381264539780022 -25.04390092037344,-1.8453161349450053 -40.24912647917159,10.149238742197532 c-25.04390092037344,20.298477484395065 -25.93832595324392,19.37581941692256 -4.4721251643524,-9.22658067472503 z" id="svg_7"/>
<path d="M3068.1794431698218,5180.953650186567 l0,-123.63618104131538 l-116.27525427316237,11.071896809670035 l-116.27525427316237,11.071896809670035 l0,-122.7135229738429 l0,-122.7135229738429 l116.27525427316237,0 l116.27525427316237,0 l0,-119.94554877142538 l0,-119.94554877142538 l118.06410433890335,0 l118.95852937177382,0 l-8.049825295834319,120.86820683889788 l-7.1554002629638385,120.86820683889788 l117.16967930603286,-3.6906322698900125 l117.16967930603286,-4.613290337362516 l5.366550197222879,125.48149717626039 l5.366550197222879,124.55883910878791 l-119.85295440464431,-6.45860647230752 l-120.74737943751478,-6.45860647230752 l4.4721251643524,119.94554877142538 l3.577700131481921,119.94554877142538 l-117.16967930603286,0 l-117.16967930603286,0.92265806747253 l0,-124.55883910878791 zm147.58013042362916,-133.7854197835129 c10.733100394445758,11.071896809670035 84.97037812269559,-80.27125187010776 84.97037812269559,-104.26036162439283 c0,-43.364929171207635 -90.33692831991846,-112.56428423164535 -133.2693298977015,-101.49238742197532 c-64.39860236667455,16.60784521450505 -104.64772884584615,85.80720027494276 -83.18152805695463,142.08934239076544 c9.838675361575278,23.989109754285078 17.888500657409597,35.983664631427615 18.782925690280077,26.757083956702584 c0,-10.149238742197532 13.416375493057199,0.92265806747253 29.516026084725837,23.989109754285078 c20.57177575602104,30.447716226592597 33.988151249078236,35.983664631427615 50.98222687361735,22.14379361934007 c11.627525427316238,-10.149238742197532 26.832750986114398,-14.762529079560048 32.199301183337276,-9.22658067472503 z" id="svg_8"/>
<path d="M1520.8241363038928,5259.379585921731 c-42.93240157778303,-18.45316134945006 -108.22542897732806,-89.49783254483279 -93.91462845140038,-103.33770355692032 c5.366550197222879,-5.535948404835017 28.621601051855354,8.303922607252526 52.771076939358316,32.2930323615376 c24.149475887502955,23.06645168681257 59.032052169451674,52.59150984593267 77.81497785973175,64.5860647230752 c39.354701446301114,24.911767821757575 16.994075624539118,29.525058159120096 -36.671426347689675,6.45860647230752 z" id="svg_9"/>
<path d="M2620.9669267345835,4166.029775966814 c0.8944250328705569,-58.12745825076769 5.366550197222879,-71.96732926285523 17.888500657409597,-51.66885177846016 c22.360625821761996,35.983664631427615 22.360625821761996,105.18301969186534 0,119.94554877142538 c-10.733100394445758,7.381264539780022 -17.888500657409597,-19.37581941692256 -17.888500657409597,-68.27669699296521 z" id="svg_10"/>
<path d="M1497.5690854492595,3960.2770269204466 l-3.577700131481921,-126.4041552437329 l-165.46863108103878,6.45860647230752 l-166.36305611390927,6.45860647230752 l8.944250328704799,-64.5860647230752 c8.049825295834319,-62.7407485881302 8.944250328704799,-62.7407485881302 15.205225558798158,-11.071896809670035 c6.26097523009336,52.59150984593267 7.1554002629638385,52.59150984593267 99.28117864862327,41.51961303626263 c50.08780184074688,-6.45860647230752 118.06410433890335,-11.994554877142539 150.26340552224062,-11.994554877142539 l58.13762713658119,0 l0,-109.79631002922784 l0,-109.79631002922784 l-120.74737943751478,-6.45860647230752 l-120.74737943751478,-6.45860647230752 l120.74737943751478,-3.6906322698900125 l120.74737943751478,-3.6906322698900125 l0,-93.18846481472279 l0,-93.18846481472279 l-118.95852937177382,5.535948404835017 l-119.85295440464431,5.535948404835017 l-23.255050854632476,73.81264539780024 l-23.255050854632476,73.81264539780024 l7.1554002629638385,-71.04467119538272 l8.049825295834319,-71.04467119538272 l-101.9644537472347,11.994554877142539 c-56.348777070840235,7.381264539780022 -110.01427904306902,23.989109754285078 -119.85295440464431,36.90632269890012 c-15.205225558798158,19.37581941692256 -22.360625821761996,19.37581941692256 -41.14355151204208,-1.8453161349450053 c-18.782925690280077,-20.298477484395065 -17.888500657409597,-24.911767821757575 2.68327509861144,-24.911767821757575 c14.310800525927677,0 42.93240157778303,-28.60240009164759 62.6097523009336,-64.5860647230752 c20.57177575602104,-35.061006563955104 33.988151249078236,-64.5860647230752 29.516026084725837,-64.5860647230752 c-25.93832595324392,0 -115.3808292402919,53.51416791340517 -160.1020808838159,95.95643901714031 c-62.6097523009336,59.05011631824019 -77.81497785973175,54.43682598087767 -36.671426347689675,-10.149238742197532 c180.6738566398369,-284.1786847815309 830.9208555366757,-367.2179108540562 1243.2507956899672,-157.774529537798 c255.80555940095724,130.09478751362292 570.6431709713662,505.6166209749316 550.0713952153452,657.8552021078946 l-6.26097523009336,50.74619371098766 l-21.466200788891516,-50.74619371098766 c-22.360625821761996,-54.43682598087767 -46.51010170926495,-71.96732926285523 -26.832750986114398,-20.298477484395065 c15.205225558798158,41.51961303626263 -18.782925690280077,20.298477484395065 -113.59197917455094,-72.88998733032773 c-40.24912647917159,-39.674296901317625 -99.28117864862327,-87.65251640988777 -129.6916297662196,-107.02833582681033 c-41.14355151204208,-25.83442588923008 -55.45435203796975,-47.978219508570156 -55.45435203796975,-87.65251640988777 c0,-29.525058159120096 -12.52195046018672,-63.66340665560269 -26.832750986114398,-76.58061960021774 c-56.348777070840235,-48.90087757604266 -7.1554002629638385,-38.75163883384512 76.92055282686128,14.762529079560048 c111.80312910880997,71.04467119538272 144.89685532501773,52.59150984593267 67.08187746528598,-35.061006563955104 c-82.28710302408416,-92.26580674725028 -202.14005742872845,-186.37692962944558 -174.4128814097436,-136.55339398593043 c37.565851380560154,66.4313808580202 69.76515256389743,101.49238742197532 93.91462845140038,101.49238742197532 c12.52195046018672,0 18.782925690280077,4.613290337362516 13.416375493057199,10.149238742197532 c-6.26097523009336,5.535948404835017 -59.032052169451674,-2.767974202417509 -118.06410433890335,-18.45316134945006 c-145.79128035788824,-38.75163883384512 -144.0024302921473,-40.59695496879013 -112.69755414168047,62.7407485881302 c25.04390092037344,78.42593573516275 37.565851380560154,94.1111228821953 91.23135335278896,110.71896809670034 l62.6097523009336,18.45316134945006 l-59.032052169451674,-8.303922607252526 l-58.13762713658119,-8.303922607252526 l8.944250328704799,95.95643901714031 c6.26097523009336,69.19935506043771 4.4721251643524,83.96188413999776 -6.26097523009336,50.74619371098766 c-8.944250328704799,-24.911767821757575 -16.994075624539118,-68.27669699296521 -17.888500657409597,-95.95643901714031 c-1.7888500657409594,-53.51416791340517 -0.8944250328705569,-52.59150984593267 -203.9289074944694,-79.34859380263525 l-85.86480315556607,-11.994554877142539 l5.366550197222879,117.17757456900787 l5.366550197222879,116.25491650153538 l113.59197917455094,12.91721294461504 c165.46863108103878,18.45316134945006 177.99058154122548,34.13834849648261 16.994075624539118,21.22113555186757 l-136.84703002918343,-10.149238742197532 l-7.1554002629638385,80.27125187010776 l-7.1554002629638385,80.27125187010776 l-3.577700131481921,-75.65796153274525 l-2.68327509861144,-75.65796153274525 l-93.91462845140038,-11.994554877142539 c-51.87665190648784,-6.45860647230752 -123.43065453612621,-11.994554877142539 -160.1020808838159,-11.994554877142539 l-66.1874524324155,0 l-6.26097523009336,133.7854197835129 l-6.26097523009336,133.7854197835129 l-3.577700131481921,-126.4041552437329 zm330.04283712920704,-226.9738845982357 c-6.26097523009336,-47.05556144109765 -11.627525427316238,-100.56972935450283 -11.627525427316238,-119.94554877142538 c0,-30.447716226592597 -16.099650591668638,-34.13834849648261 -151.1578305551111,-34.13834849648261 l-151.1578305551111,0 l0.8944250328705569,109.79631002922784 l0,109.79631002922784 l146.6857053907587,6.45860647230752 c79.60382792547271,3.6906322698900125 152.94668062085205,8.303922607252526 161.89093094955686,10.149238742197532 c8.049825295834319,1.8453161349450053 10.733100394445758,-35.061006563955104 4.4721251643524,-82.11656800505276 zm263.85538469679153,-240.81375561032326 l-28.621601051855354,-93.18846481472279 l-118.06410433890335,-11.071896809670035 c-139.53030512779486,-13.839871012087542 -127.90277970047862,-22.14379361934007 -116.27525427316237,83.03922607252527 l9.838675361575278,85.80720027494276 l135.95260499631294,16.60784521450505 c75.13170276112031,8.303922607252526 138.6358800949244,14.762529079560048 141.31915519353583,13.839871012087542 c2.68327509861144,-1.8453161349450053 -8.049825295834319,-44.28758723868014 -24.149475887502955,-95.0337809496678 zm-285.3215854856831,-3.6906322698900125 c-18.782925690280077,-114.40960036659035 -16.099650591668638,-112.56428423164535 -148.47455545649967,-112.56428423164535 l-124.32507956899671,0 l-6.26097523009336,83.03922607252527 c-7.1554002629638385,96.87909708461281 -16.099650591668638,91.34314867977778 155.6299557194635,94.1111228821953 l134.16375493057197,2.767974202417509 l-10.733100394445758,-67.35403892549272 zm418.5909153833846,-115.33225843406287 c-24.149475887502955,-31.370374294065098 -79.60382792547271,-72.88998733032773 -123.43065453612621,-91.34314867977778 c-43.826826610653505,-17.530503281977552 -67.08187746528598,-33.2156904290101 -52.771076939358316,-34.13834849648261 c16.099650591668638,-0.92265806747253 4.4721251643524,-16.60784521450505 -26.832750986114398,-37.828980766372624 c-63.50417733380407,-43.364929171207635 -93.91462845140038,-47.978219508570156 -62.6097523009336,-9.22658067472503 c12.52195046018672,15.685187147032549 33.988151249078236,27.679742024175084 48.29895177500591,27.679742024175084 c13.416375493057199,0 20.57177575602104,7.381264539780022 15.205225558798158,17.530503281977552 c-26.832750986114398,43.364929171207635 60.820902235192634,139.32136818834798 146.6857053907587,160.54250374021552 c46.51010170926495,11.071896809670035 87.65365322130701,21.22113555186757 92.12577838565943,23.06645168681257 c3.577700131481921,0.92265806747253 -13.416375493057199,-23.989109754285078 -36.671426347689675,-56.28214211582267 zm-1042.0051632941093,2.767974202417509 c38.46027641343064,0 96.59790355001182,-75.65796153274525 96.59790355001182,-125.48149717626039 c0,-27.679742024175084 -140.42473016066535,6.45860647230752 -180.6738566398369,44.28758723868014 c-75.13170276112031,70.12201312791021 -81.39267799121367,107.02833582681033 -16.099650591668638,93.18846481472279 c32.199301183337276,-6.45860647230752 76.92055282686128,-11.994554877142539 100.17560368149375,-11.994554877142539 zm832.7097056024168,-59.97277438571269 c-60.820902235192634,-98.7244132195578 -245.0724590065115,-129.1721294461504 -224.50068325049045,-36.90632269890012 c17.888500657409597,77.50327766769024 32.199301183337276,83.96188413999776 210.18988272456278,94.1111228821953 l50.98222687361735,2.767974202417509 l-36.671426347689675,-59.97277438571269 zm-514.294393900526,11.994554877142539 c17.888500657409597,-48.90087757604266 11.627525427316238,-114.40960036659035 -11.627525427316238,-124.55883910878791 c-13.416375493057199,-5.535948404835017 -9.838675361575278,-9.22658067472503 8.944250328704799,-10.149238742197532 c18.782925690280077,-0.92265806747253 31.3048761504668,-16.60784521450505 31.3048761504668,-39.674296901317625 c0,-47.978219508570156 -113.59197917455094,-33.2156904290101 -169.0463312125207,21.22113555186757 c-34.882576281948715,35.061006563955104 -34.882576281948715,35.061006563955104 26.832750986114398,37.828980766372624 l61.715327268063106,2.767974202417509 l-70.65957759676792,11.071896809670035 c-58.13762713658119,9.22658067472503 -74.23727772824984,21.22113555186757 -93.91462845140038,71.04467119538272 l-23.255050854632476,59.97277438571269 l114.48640420742142,0 c87.65365322130701,0 117.16967930603286,-6.45860647230752 125.2195046018672,-29.525058159120096 zm271.0107849597554,-21.22113555186757 c-31.3048761504668,-133.7854197835129 -67.97630249815647,-179.91832315713808 -148.47455545649967,-185.45427156197306 c-66.1874524324155,-5.535948404835017 -76.02612779399078,-0.92265806747253 -76.02612779399078,32.2930323615376 c0,31.370374294065098 11.627525427316238,37.828980766372624 70.65957759676792,37.828980766372624 c38.46027641343064,0 74.23727772824984,6.45860647230752 78.70940289260223,13.839871012087542 c4.4721251643524,7.381264539780022 -29.516026084725837,13.839871012087542 -75.13170276112031,13.839871012087542 l-83.18152805695463,0 l-5.366550197222879,69.19935506043771 l-5.366550197222879,69.19935506043771 l127.90277970047862,0 l127.90277970047862,0 l-11.627525427316238,-50.74619371098766 zm-454.36791669820377,-119.02289070395287 c21.466200788891516,-36.90632269890012 -27.727176018984874,-39.674296901317625 -91.23135335278896,-6.45860647230752 c-29.516026084725837,16.60784521450505 -54.559927005099276,34.13834849648261 -54.559927005099276,40.59695496879013 c0,20.298477484395065 131.48047983196054,-10.149238742197532 145.79128035788824,-34.13834849648261 zm595.6870718917396,4.613290337362516 c-53.665501972228796,-55.35948404835017 -198.56235729724654,-75.65796153274525 -167.25748114677972,-23.06645168681257 c16.994075624539118,27.679742024175084 46.51010170926495,40.59695496879013 104.64772884584615,45.210245306152636 c44.72125164352399,3.6906322698900125 84.97037812269559,8.303922607252526 89.44250328704798,10.149238742197532 c5.366550197222879,1.8453161349450053 -7.1554002629638385,-12.91721294461504 -26.832750986114398,-32.2930323615376 z" id="svg_11"/>
<path d="M2357.1115420377914,3985.1887947422038 c-32.199301183337276,-30.447716226592597 -58.13762713658119,-67.35403892549272 -58.13762713658119,-83.03922607252527 c0,-43.364929171207635 81.39267799121367,-33.2156904290101 112.69755414168047,13.839871012087542 l27.727176018984874,41.51961303626263 l-8.944250328704799,-40.59695496879013 c-8.049825295834319,-33.2156904290101 -3.577700131481921,-37.828980766372624 27.727176018984874,-29.525058159120096 c27.727176018984874,7.381264539780022 33.09372621620775,16.60784521450505 21.466200788891516,38.75163883384512 c-11.627525427316238,20.298477484395065 -7.1554002629638385,37.828980766372624 13.416375493057199,54.43682598087767 c25.93832595324392,22.14379361934007 25.04390092037344,23.06645168681257 -9.838675361575278,5.535948404835017 c-54.559927005099276,-27.679742024175084 -62.6097523009336,-24.911767821757575 -50.08780184074688,17.530503281977552 c16.099650591668638,50.74619371098766 -8.049825295834319,45.210245306152636 -76.02612779399078,-18.45316134945006 z" id="svg_12"/>
<path d="M492.23534850283977,3902.149568669678 c0,-48.90087757604266 51.87665190648784,-135.63073591845793 93.91462845140038,-158.6971876052705 c35.777001314819195,-18.45316134945006 34.882576281948715,-14.762529079560048 -8.944250328704799,33.2156904290101 c-26.832750986114398,29.525058159120096 -49.1933768078764,71.04467119538272 -49.1933768078764,93.18846481472279 c0,21.22113555186757 -8.049825295834319,44.28758723868014 -17.888500657409597,50.74619371098766 c-9.838675361575278,6.45860647230752 -17.888500657409597,-1.8453161349450053 -17.888500657409597,-18.45316134945006 z" id="svg_13"/>
<path d="M1139.799072301068,3683.4796066786953 c-62.6097523009336,-32.2930323615376 -49.1933768078764,-131.0174455810954 18.782925690280077,-133.7854197835129 c38.46027641343064,-1.8453161349450053 48.29895177500591,6.45860647230752 46.51010170926495,36.90632269890012 c-1.7888500657409594,21.22113555186757 0,47.05556144109765 2.68327509861144,57.20480018329518 c15.205225558798158,62.7407485881302 -1.7888500657409594,72.88998733032773 -67.97630249815647,39.674296901317625 z" id="svg_14"/>
<path d="M3891.0504734106644,3231.377153617169 c0,-496.3900403002065 59.92647720232216,-445.6438465892189 -532.1828945579355,-451.1797949940539 l-465.99544212552,-3.6906322698900125 l-107.33100394445759,-106.10567775933784 c-59.92647720232216,-58.12745825076769 -102.85887878010519,-107.95099389428283 -95.70347851714135,-110.71896809670034 c6.26097523009336,-2.767974202417509 281.74388535420115,0 612.6811475162788,4.613290337362516 l600.159197056092,9.22658067472503 l67.97630249815647,53.51416791340517 c112.69755414168047,88.57517447736028 134.16375493057197,164.2331360101055 135.05817996344246,468.7102982760315 l0,264.80286536460835 l-83.18152805695463,104.26036162439283 c-44.72125164352399,58.12745825076769 -85.86480315556607,115.33225843406287 -91.23135335278896,128.24947137867792 c-28.621601051855354,78.42593573516275 -40.24912647917159,-21.22113555186757 -40.24912647917159,-361.6819624492211 z" id="svg_15"/>
<path d="M2889.2944365957264,1383.2930444697454 c0,-10.149238742197532 47.40452674213543,-18.45316134945006 107.33100394445759,-18.45316134945006 c59.92647720232216,0 107.33100394445759,8.303922607252526 107.33100394445759,18.45316134945006 c0,10.149238742197532 -47.40452674213543,18.45316134945006 -107.33100394445759,18.45316134945006 c-59.92647720232216,0 -107.33100394445759,-8.303922607252526 -107.33100394445759,-18.45316134945006 z" id="svg_16"/>
</g><path fill="#00d231" fill-opacity="1" stroke="none" stroke-opacity="1" stroke-width="1" stroke-dasharray="none" stroke-linejoin="miter" stroke-linecap="butt" stroke-dashoffset="" fill-rule="nonzero" opacity="0" marker-start="" marker-mid="" marker-end="" d="M469.2962951660156,227.05555725097656 C469.2962951660156,226.77931415705393 472.8764056632532,226.55555725097656 477.2962951660156,226.55555725097656 C481.71618466877806,226.55555725097656 485.2962951660156,226.77931415705393 485.2962951660156,227.05555725097656 C485.2962951660156,227.3318003448992 481.71618466877806,227.55555725097656 477.2962951660156,227.55555725097656 C472.8764056632532,227.55555725097656 469.2962951660156,227.3318003448992 469.2962951660156,227.05555725097656 z" id="svg_59" class=""/><polyline fill="none" stroke="#000000" stroke-dashoffset="" fill-rule="nonzero" opacity="0" marker-start="" marker-mid="" marker-end="" id="svg_20" points="272.79628748585714,332.0740655194995 273.53702821351595,332.0740655194995 275.7592503964923,332.0740655194995 277.98147257946863,332.0740655194995 283.16665767308024,331.3333247918407 286.1296205837154,331.3333247918407 288.35184276669173,330.5925840641819 289.09258349435055,329.8518433365231 290.57406494966807,329.8518433365231 291.3148056773269,329.8518433365231 292.0555464049857,329.8518433365231 292.0555464049857,329.8518433365231 294.27776858796204,329.8518433365231 292.7962871326444,329.8518433365231 288.35184276669173,329.8518433365231 281.6851762177626,329.8518433365231 277.2407318518099,329.8518433365231 275.0185096688335,329.8518433365231 272.79628748585714,329.8518433365231 271.3148060305396,329.8518433365231 271.3148060305396,329.8518433365231 " style="color: rgb(0, 0, 0);"/><polyline fill="#ffffff" stroke="#000000" stroke-dashoffset="" fill-rule="nonzero" opacity="0" marker-start="" marker-mid="" marker-end="" id="svg_24" points="274.6144625552042,330.59259033203125 274.27777099609375,330.59259033203125 274.27777099609375,329.11114353602807 274.95116710045113,326.1481355031365 275.6245632048085,324.6666887071333 276.6346638544128,320.2222338782385 276.9713537902562,318.7407298617927 277.6447498946136,317.25928306578953 277.9814544398605,315.77777904934374 277.9814544398605,317.25928306578953 " style="color: rgb(0, 0, 0);" class=""/><path fill="#ffffff" fill-opacity="1" stroke="#000000" stroke-opacity="1" stroke-width="1" stroke-dasharray="none" stroke-linejoin="miter" stroke-linecap="butt" stroke-dashoffset="" fill-rule="nonzero" opacity="1" marker-start="" marker-mid="" marker-end="" id="svg_26" d="M266.8703616645868,326.8888804258879 " style="color: rgb(0, 0, 0);"/><path fill="#ffffff" fill-opacity="1" stroke="#000000" stroke-opacity="1" stroke-width="1" stroke-dasharray="none" stroke-linejoin="miter" stroke-linecap="butt" stroke-dashoffset="" fill-rule="nonzero" opacity="0" marker-start="" marker-mid="" marker-end="" d="M265,326 C265,324.3425414364641 272.8314917127072,323 282.5,323 C292.1685082872928,323 300,324.3425414364641 300,326 C300,327.6574585635359 292.1685082872928,329 282.5,329 C272.8314917127072,329 265,327.6574585635359 265,326 Z" id="svg_30" class=""/><path fill="#ffffff" fill-opacity="1" stroke="#000000" stroke-opacity="1" stroke-width="1" stroke-dasharray="none" stroke-linejoin="miter" stroke-linecap="butt" stroke-dashoffset="" fill-rule="nonzero" opacity="0" marker-start="" marker-mid="" marker-end="" d="M216,169 C216,165.68508287292818 218.68508287292818,163 222,163 C225.31491712707182,163 228,165.68508287292818 228,169 C228,172.31491712707182 225.31491712707182,175 222,175 C218.68508287292818,175 216,172.31491712707182 216,169 Z" id="svg_34"/><foreignObject fill="none" stroke="#000000" stroke-dashoffset="" fill-rule="nonzero" font-size="36" font-family="Verdana, Geneva, sans-serif" letter-spacing="0" word-spacing="0" marker-start="" marker-mid="" marker-end="" id="svg_44" x="0" y="300" width="189" height="42" style="color: rgb(244, 142, 63);" class="" font-weight="bold" fill-opacity="1"><p xmlns="http://www.w3.org/1999/xhtml"><p xmlns="http://www.w3.org/1999/xhtml" style="border: none;outline: none;font-size: inherit;line-height: 1em;padding:0;margin:0;"></p><p xmlns="http://www.w3.org/1999/xhtml" style="border: none;outline: none;font-size: inherit;line-height: 1em;padding:0;margin:0;"></p><p xmlns="http://www.w3.org/1999/xhtml" style="border: none;outline: none;font-size: inherit;line-height: 1em;padding:0;margin:0;"></p><p xmlns="http://www.w3.org/1999/xhtml" style="border: none;outline: none;font-size: inherit;line-height: 1em;padding:0;margin:0;"></p><p xmlns="http://www.w3.org/1999/xhtml" style="border: none;outline: none;font-size: inherit;line-height: 1em;padding:0;margin:0;"><br style="border: none;outline: none;font-size: inherit;line-height: 1em;padding:0;margin:0;" /></p><div style="border: none;outline: none;font-size: inherit;line-height: 1em;padding:0;margin:0;"><br style="border: none;outline: none;font-size: inherit;line-height: 1em;padding:0;margin:0;" /></div><p style="border: none;outline: none;font-size: inherit;line-height: 1em;padding:0;margin:0;"></p><p style="border: none;outline: none;font-size: inherit;line-height: 1em;padding:0;margin:0;"></p><p style="border: none;outline: none;font-size: inherit;line-height: 1em;padding:0;margin:0;"></p><p style="border: none;outline: none;font-size: inherit;line-height: 1em;padding:0;margin:0;"></p><p></p></p></foreignObject><foreignObject fill="none" stroke="#000000" stroke-dashoffset="" fill-rule="nonzero" font-size="22" font-family="Verdana, Geneva, sans-serif" letter-spacing="0" word-spacing="0" marker-start="" marker-mid="" marker-end="" id="svg_51" x="0" y="335.5068359375" width="400" height="46" style="color: rgb(3, 210, 0); text-align: left;" class="" font-weight="bold" fill-opacity="1"><p xmlns="http://www.w3.org/1999/xhtml"><p xmlns="http://www.w3.org/1999/xhtml" style="border: none;outline: none;font-size: inherit;line-height: 1em;padding:0;margin:0;"></p><p xmlns="http://www.w3.org/1999/xhtml" style="border: none;outline: none;font-size: inherit;line-height: 1em;padding:0;margin:0;"></p><p xmlns="http://www.w3.org/1999/xhtml" style="border: none;outline: none;font-size: inherit;line-height: 1em;padding:0;margin:0;"></p><p xmlns="http://www.w3.org/1999/xhtml" style="border: none;outline: none;font-size: inherit;line-height: 1em;padding:0;margin:0;"></p><p xmlns="http://www.w3.org/1999/xhtml" style="border: none;outline: none;font-size: inherit;line-height: 1em;padding:0;margin:0;">     <span style="border: none;outline: none;font-size: inherit;line-height: 1em;padding:0;margin:0;">      </span></p><p xmlns="http://www.w3.org/1999/xhtml" style="border: none;outline: none;font-size: inherit;line-height: 1em;padding:0;margin:0;"><span style="border: none;outline: none;font-size: inherit;line-height: 1em;padding:0;margin:0;">        </span></p><p style="border: none;outline: none;font-size: inherit;line-height: 1em;padding:0;margin:0;"></p><p style="border: none;outline: none;font-size: inherit;line-height: 1em;padding:0;margin:0;"></p><p style="border: none;outline: none;font-size: inherit;line-height: 1em;padding:0;margin:0;"></p><p style="border: none;outline: none;font-size: inherit;line-height: 1em;padding:0;margin:0;"></p><p></p></p></foreignObject><path fill="#00d231" fill-opacity="1" stroke="none" stroke-opacity="1" stroke-width="1" stroke-dasharray="none" stroke-linejoin="miter" stroke-linecap="butt" stroke-dashoffset="" fill-rule="nonzero" opacity="1" marker-start="" marker-mid="" marker-end="" d="M200,76.5 C200,74.56629834254143 202.23756906077347,73 205,73 C207.76243093922653,73 210,74.56629834254143 210,76.5 C210,78.43370165745857 207.76243093922653,80 205,80 C202.23756906077347,80 200,78.43370165745857 200,76.5 Z" id="svg_37"/><path fill="#00d231" fill-opacity="1" stroke="none" stroke-opacity="1" stroke-width="1" stroke-dasharray="none" stroke-linejoin="miter" stroke-linecap="butt" stroke-dashoffset="" fill-rule="nonzero" opacity="1" marker-start="" marker-mid="" marker-end="" d="M210,73 C210,70.79005524861878 211.11878453038673,69 212.5,69 C213.88121546961327,69 215,70.79005524861878 215,73 C215,75.20994475138122 213.88121546961327,77 212.5,77 C211.11878453038673,77 210,75.20994475138122 210,73 Z" id="svg_39"/><path fill="#00d231" fill-opacity="1" stroke="none" stroke-opacity="1" stroke-width="1" stroke-dasharray="none" stroke-linejoin="miter" stroke-linecap="butt" stroke-dashoffset="" fill-rule="nonzero" opacity="1" marker-start="" marker-mid="" marker-end="" d="M201,75.5 C201,74.11878453038673 203.90883977900552,73 207.5,73 C211.09116022099448,73 214,74.11878453038673 214,75.5 C214,76.88121546961327 211.09116022099448,78 207.5,78 C203.90883977900552,78 201,76.88121546961327 201,75.5 Z" id="svg_46"/><path fill="#00d231" fill-opacity="1" stroke="none" stroke-opacity="1" stroke-width="1" stroke-dasharray="none" stroke-linejoin="miter" stroke-linecap="butt" stroke-dashoffset="" fill-rule="nonzero" opacity="1" marker-start="" marker-mid="" marker-end="" d="M207,74.5 C207,72.56629834254143 207.8950276243094,71 209,71 C210.1049723756906,71 211,72.56629834254143 211,74.5 C211,76.43370165745857 210.1049723756906,78 209,78 C207.8950276243094,78 207,76.43370165745857 207,74.5 Z" id="svg_48"/><path fill="#00d231" fill-opacity="1" stroke="none" stroke-opacity="1" stroke-width="1" stroke-dasharray="none" stroke-linejoin="miter" stroke-linecap="butt" stroke-dashoffset="" fill-rule="nonzero" opacity="1" marker-start="" marker-mid="" marker-end="" d="M170,130 C170,124.47513812154696 172.46132596685084,120 175.5,120 C178.53867403314916,120 181,124.47513812154696 181,130 C181,135.52486187845304 178.53867403314916,140 175.5,140 C172.46132596685084,140 170,135.52486187845304 170,130 Z" id="svg_65"/><path fill="#00d231" fill-opacity="1" stroke="none" stroke-opacity="1" stroke-width="1" stroke-dasharray="none" stroke-linejoin="miter" stroke-linecap="butt" stroke-dashoffset="" fill-rule="nonzero" opacity="1" marker-start="" marker-mid="" marker-end="" d="M478,387 C478,387 478,387 478,387 C478,387 478,387 478,387 C478,387 478,387 478,387 C478,387 478,387 478,387 Z" id="svg_81"/><rect fill="#00d231" stroke-dashoffset="" fill-rule="nonzero" id="svg_17" x="108" y="43" width="25" height="5" style="color: rgb(0, 0, 0);"/><rect fill="#00d231" stroke-dashoffset="" fill-rule="nonzero" id="svg_19" x="129" y="44" width="9" height="2" style="color: rgb(0, 0, 0);"/><rect fill="#00d231" stroke-dashoffset="" fill-rule="nonzero" id="svg_22" x="129" y="44" width="20" height="0" style="color: rgb(0, 0, 0);"/><rect fill="#00d231" stroke-dashoffset="" fill-rule="nonzero" id="svg_25" x="131" y="43" width="11" height="5" style="color: rgb(0, 0, 0);"/><rect fill="#00d231" stroke-dashoffset="" fill-rule="nonzero" id="svg_28" x="16" y="200" width="8" height="6" style="color: rgb(0, 0, 0);"/><rect fill="#00d231" stroke-dashoffset="" fill-rule="nonzero" id="svg_31" x="148" y="82" width="21" height="7" style="color: rgb(0, 0, 0);"/><rect fill="#00d231" stroke-dashoffset="" fill-rule="nonzero" id="svg_33" x="155" y="74" width="7" height="20" style="color: rgb(0, 0, 0);"/><rect fill="#00d231" stroke-dashoffset="" fill-rule="nonzero" id="svg_36" x="159" y="85" width="8" height="6" style="color: rgb(0, 0, 0);"/><path fill="#00d231" fill-opacity="1" stroke="none" stroke-opacity="1" stroke-width="1" stroke-dasharray="none" stroke-linejoin="miter" stroke-linecap="butt" stroke-dashoffset="" fill-rule="nonzero" opacity="1" marker-start="" marker-mid="" marker-end="" d="M121,34.5 C121,32.01381215469613 122.79005524861878,30 125,30 C127.20994475138122,30 129,32.01381215469613 129,34.5 C129,36.98618784530387 127.20994475138122,39 125,39 C122.79005524861878,39 121,36.98618784530387 121,34.5 Z" id="svg_40"/><path fill="#00d231" fill-opacity="1" stroke="none" stroke-opacity="1" stroke-width="1" stroke-dasharray="none" stroke-linejoin="miter" stroke-linecap="butt" stroke-dashoffset="" fill-rule="nonzero" opacity="1" marker-start="" marker-mid="" marker-end="" d="M127,30 C127,27.790055248618785 128.56629834254144,26 130.5,26 C132.43370165745856,26 134,27.790055248618785 134,30 C134,32.209944751381215 132.43370165745856,34 130.5,34 C128.56629834254144,34 127,32.209944751381215 127,30 Z" id="svg_42"/><path fill="#00d231" fill-opacity="1" stroke="none" stroke-opacity="1" stroke-width="1" stroke-dasharray="none" stroke-linejoin="miter" stroke-linecap="butt" stroke-dashoffset="" fill-rule="nonzero" opacity="1" marker-start="" marker-mid="" marker-end="" d="M136,27.5 C136,24.46132596685083 137.11878453038673,22 138.5,22 C139.88121546961327,22 141,24.46132596685083 141,27.5 C141,30.53867403314917 139.88121546961327,33 138.5,33 C137.11878453038673,33 136,30.53867403314917 136,27.5 Z" id="svg_45"/><path fill="#00d231" fill-opacity="1" stroke="none" stroke-opacity="1" stroke-width="1" stroke-dasharray="none" stroke-linejoin="miter" stroke-linecap="butt" stroke-dashoffset="" fill-rule="nonzero" opacity="1" marker-start="" marker-mid="" marker-end="" d="M132,30 C132,26.685082872928177 133.34254143646407,24 135,24 C136.65745856353593,24 138,26.685082872928177 138,30 C138,33.31491712707182 136.65745856353593,36 135,36 C133.34254143646407,36 132,33.31491712707182 132,30 Z" id="svg_49"/><path fill="#00d231" fill-opacity="1" stroke="none" stroke-opacity="1" stroke-width="1" stroke-dasharray="none" stroke-linejoin="miter" stroke-linecap="butt" stroke-dashoffset="" fill-rule="nonzero" opacity="1" marker-start="" marker-mid="" marker-end="" d="M136,24.5 C136,24.223756906077348 137.34254143646407,24 139,24 C140.65745856353593,24 142,24.223756906077348 142,24.5 C142,24.776243093922652 140.65745856353593,25 139,25 C137.34254143646407,25 136,24.776243093922652 136,24.5 Z" id="svg_52"/><path fill="#00d231" fill-opacity="1" stroke="none" stroke-opacity="1" stroke-width="1" stroke-dasharray="none" stroke-linejoin="miter" stroke-linecap="butt" stroke-dashoffset="" fill-rule="nonzero" opacity="1" marker-start="" marker-mid="" marker-end="" d="M33,124.5 C33,118.6988950276243 35.908839779005525,114 39.5,114 C43.091160220994475,114 46,118.6988950276243 46,124.5 C46,130.3011049723757 43.091160220994475,135 39.5,135 C35.908839779005525,135 33,130.3011049723757 33,124.5 Z" id="svg_54"/><path fill="#00d231" fill-opacity="1" stroke="none" stroke-opacity="1" stroke-width="1" stroke-dasharray="none" stroke-linejoin="miter" stroke-linecap="butt" stroke-dashoffset="" fill-rule="nonzero" opacity="1" marker-start="" marker-mid="" marker-end="" d="M27,123.5 C27,122.11878453038673 28.34254143646409,121 30,121 C31.65745856353591,121 33,122.11878453038673 33,123.5 C33,124.88121546961327 31.65745856353591,126 30,126 C28.34254143646409,126 27,124.88121546961327 27,123.5 Z" id="svg_56"/><path fill="#00d231" fill-opacity="1" stroke="none" stroke-opacity="1" stroke-width="1" stroke-dasharray="none" stroke-linejoin="miter" stroke-linecap="butt" stroke-dashoffset="" fill-rule="nonzero" opacity="1" marker-start="" marker-mid="" marker-end="" d="M59,107 C59,103.13259668508287 61.46132596685083,100 64.5,100 C67.53867403314918,100 70,103.13259668508287 70,107 C70,110.86740331491713 67.53867403314918,114 64.5,114 C61.46132596685083,114 59,110.86740331491713 59,107 Z" id="svg_58"/><path fill="#00d231" fill-opacity="1" stroke="none" stroke-opacity="1" stroke-width="1" stroke-dasharray="none" stroke-linejoin="miter" stroke-linecap="butt" stroke-dashoffset="" fill-rule="nonzero" opacity="1" marker-start="" marker-mid="" marker-end="" d="M65,105 C65,96.16022099447514 74.62154696132596,89 86.5,89 C98.37845303867404,89 108,96.16022099447514 108,105 C108,113.83977900552486 98.37845303867404,121 86.5,121 C74.62154696132596,121 65,113.83977900552486 65,105 Z" id="svg_61"/><path fill="#00d231" fill-opacity="1" stroke="none" stroke-opacity="1" stroke-width="1" stroke-dasharray="none" stroke-linejoin="miter" stroke-linecap="butt" stroke-dashoffset="" fill-rule="nonzero" opacity="1" marker-start="" marker-mid="" marker-end="" d="M96,112.5 C96,108.90883977900552 99.80386740331491,106 104.5,106 C109.19613259668509,106 113,108.90883977900552 113,112.5 C113,116.09116022099448 109.19613259668509,119 104.5,119 C99.80386740331491,119 96,116.09116022099448 96,112.5 Z" id="svg_63"/><path fill="#00d231" fill-opacity="1" stroke="none" stroke-opacity="1" stroke-width="1" stroke-dasharray="none" stroke-linejoin="miter" stroke-linecap="butt" stroke-dashoffset="" fill-rule="nonzero" opacity="1" marker-start="" marker-mid="" marker-end="" d="M101,105.5 C101,102.46132596685082 104.35635359116021,100 108.5,100 C112.64364640883979,100 116,102.46132596685082 116,105.5 C116,108.53867403314918 112.64364640883979,111 108.5,111 C104.35635359116021,111 101,108.53867403314918 101,105.5 Z" id="svg_66"/><path fill="#00d231" fill-opacity="1" stroke="none" stroke-opacity="1" stroke-width="1" stroke-dasharray="none" stroke-linejoin="miter" stroke-linecap="butt" stroke-dashoffset="" fill-rule="nonzero" opacity="1" marker-start="" marker-mid="" marker-end="" d="M107,100 C107,98.34254143646409 109.68508287292818,97 113,97 C116.31491712707182,97 119,98.34254143646409 119,100 C119,101.65745856353591 116.31491712707182,103 113,103 C109.68508287292818,103 107,101.65745856353591 107,100 Z" id="svg_68"/><path fill="#00d231" fill-opacity="1" stroke="none" stroke-opacity="1" stroke-width="1" stroke-dasharray="none" stroke-linejoin="miter" stroke-linecap="butt" stroke-dashoffset="" fill-rule="nonzero" opacity="1" marker-start="" marker-mid="" marker-end="" d="M82,91 C82,86.02762430939227 90.27900552486187,82 100.5,82 C110.72099447513813,82 119,86.02762430939227 119,91 C119,95.97237569060773 110.72099447513813,100 100.5,100 C90.27900552486187,100 82,95.97237569060773 82,91 Z" id="svg_70"/><path fill="#00d231" fill-opacity="1" stroke="none" stroke-opacity="1" stroke-width="1" stroke-dasharray="none" stroke-linejoin="miter" stroke-linecap="butt" stroke-dashoffset="" fill-rule="nonzero" opacity="1" marker-start="" marker-mid="" marker-end="" d="M103,83 C103,79.68508287292818 105.46132596685082,77 108.5,77 C111.53867403314918,77 114,79.68508287292818 114,83 C114,86.31491712707182 111.53867403314918,89 108.5,89 C105.46132596685082,89 103,86.31491712707182 103,83 Z" id="svg_72"/><path fill="#00d231" fill-opacity="1" stroke="none" stroke-opacity="1" stroke-width="1" stroke-dasharray="none" stroke-linejoin="miter" stroke-linecap="butt" stroke-dashoffset="" fill-rule="nonzero" opacity="1" marker-start="" marker-mid="" marker-end="" d="M69,91 C69,87.13259668508287 73.92265193370166,84 80,84 C86.07734806629834,84 91,87.13259668508287 91,91 C91,94.86740331491713 86.07734806629834,98 80,98 C73.92265193370166,98 69,94.86740331491713 69,91 Z" id="svg_74"/><path fill="#00d231" fill-opacity="1" stroke="none" stroke-opacity="1" stroke-width="1" stroke-dasharray="none" stroke-linejoin="miter" stroke-linecap="butt" stroke-dashoffset="" fill-rule="nonzero" opacity="1" marker-start="" marker-mid="" marker-end="" d="M55,96 C55,92.13259668508287 60.5939226519337,89 67.5,89 C74.4060773480663,89 80,92.13259668508287 80,96 C80,99.86740331491713 74.4060773480663,103 67.5,103 C60.5939226519337,103 55,99.86740331491713 55,96 Z" id="svg_76"/><path fill="#00d231" fill-opacity="1" stroke="none" stroke-opacity="1" stroke-width="1" stroke-dasharray="none" stroke-linejoin="miter" stroke-linecap="butt" stroke-dashoffset="" fill-rule="nonzero" opacity="1" marker-start="" marker-mid="" marker-end="" d="M66,89.5 C66,85.90883977900552 67.79005524861878,83 70,83 C72.20994475138122,83 74,85.90883977900552 74,89.5 C74,93.09116022099448 72.20994475138122,96 70,96 C67.79005524861878,96 66,93.09116022099448 66,89.5 Z" id="svg_78"/><path fill="#00d231" fill-opacity="1" stroke="none" stroke-opacity="1" stroke-width="1" stroke-dasharray="none" stroke-linejoin="miter" stroke-linecap="butt" stroke-dashoffset="" fill-rule="nonzero" opacity="1" marker-start="" marker-mid="" marker-end="" d="M52,93.5 C52,91.01381215469613 54.23756906077348,89 57,89 C59.76243093922652,89 62,91.01381215469613 62,93.5 C62,95.98618784530387 59.76243093922652,98 57,98 C54.23756906077348,98 52,95.98618784530387 52,93.5 Z" id="svg_80"/><path fill="#00d231" fill-opacity="1" stroke="none" stroke-opacity="1" stroke-width="1" stroke-dasharray="none" stroke-linejoin="miter" stroke-linecap="butt" stroke-dashoffset="" fill-rule="nonzero" opacity="1" marker-start="" marker-mid="" marker-end="" d="M63,90 C63,88.34254143646409 66.35635359116021,87 70.5,87 C74.64364640883979,87 78,88.34254143646409 78,90 C78,91.65745856353591 74.64364640883979,93 70.5,93 C66.35635359116021,93 63,91.65745856353591 63,90 Z" id="svg_83"/><path fill="#00d231" fill-opacity="1" stroke="none" stroke-opacity="1" stroke-width="1" stroke-dasharray="none" stroke-linejoin="miter" stroke-linecap="butt" stroke-dashoffset="" fill-rule="nonzero" opacity="1" marker-start="" marker-mid="" marker-end="" d="M82,84 C82,81.23756906077348 86.6988950276243,79 92.5,79 C98.3011049723757,79 103,81.23756906077348 103,84 C103,86.76243093922652 98.3011049723757,89 92.5,89 C86.6988950276243,89 82,86.76243093922652 82,84 Z" id="svg_85"/><path fill="#00d231" fill-opacity="1" stroke="none" stroke-opacity="1" stroke-width="1" stroke-dasharray="none" stroke-linejoin="miter" stroke-linecap="butt" stroke-dashoffset="" fill-rule="nonzero" opacity="1" marker-start="" marker-mid="" marker-end="" d="M96,81 C96,78.79005524861878 99.58011049723757,77 104,77 C108.41988950276243,77 112,78.79005524861878 112,81 C112,83.20994475138122 108.41988950276243,85 104,85 C99.58011049723757,85 96,83.20994475138122 96,81 Z" id="svg_87"/><path fill="#00d231" fill-opacity="1" stroke="none" stroke-opacity="1" stroke-width="1" stroke-dasharray="none" stroke-linejoin="miter" stroke-linecap="butt" stroke-dashoffset="" fill-rule="nonzero" opacity="1" marker-start="" marker-mid="" marker-end="" d="M112,98 C112,96.34254143646409 112.89502762430939,95 114,95 C115.10497237569061,95 116,96.34254143646409 116,98 C116,99.65745856353591 115.10497237569061,101 114,101 C112.89502762430939,101 112,99.65745856353591 112,98 Z" id="svg_89"/></g><style xmlns="http://www.w3.org/1999/xhtml">@import url(http://fonts.googleapis.com/css?family=Abel);</style></svg>
